…
``` r
Long <- all7 %>%
  # convert data into the "very long" format.
  gather(a_memorig:g_vote6, key = "variable", value = "value") %>%
  # split the column with variable names into two (one for wave and one for generic variable name)
  separate(variable, into = c("wave", "variable"), sep = "_", extra = "merge") %>%
  # convert into the format we need
  spread(key = variable, value = value) %>%
  as_tibble()
Long
```

    ## # A tibble: 584,227 x 6
    ##     pidp wave  age_dv memorig sex_dv vote6
    ##    <int> <chr>  <int>   <int>  <int> <int>
    ##  1 22445 a         NA      NA     NA    NA
    ##  2 22445 b         NA      NA     NA    NA
    ##  3 22445 c         NA      NA     NA    NA
    ##  4 22445 d         27       3      2     2
    ##  5 22445 e         28       3      2     2
    ##  6 22445 f         29       3      2     2
    ##  7 22445 g         30       3      2     1
    ##  8 29925 a         NA      NA     NA    NA
    ##  9 29925 b         NA      NA     NA    NA
    ## 10 29925 c         NA      NA     NA    NA
    ## # ... with 584,217 more rows

``` r
# alternatively

Long <- all7 %>%
  pivot_longer(a_memorig:g_vote6, names_to = "variable", values_to = "value") %>%
  separate(variable, into = c("wave", "variable"), sep = "_", extra = "merge") %>%
  pivot_wider(names_from = variable, values_from = value) %>%
  as_tibble()
Long
```

    ## # A tibble: 584,227 x 6
    ##        pidp wave  memorig sex_dv age_dv vote6
    ##       <int> <chr>   <int>  <int>  <int> <int>
    ##  1 68001367 a           1      1     39     3
    ##  2 68001367 b          NA     NA     NA    NA
    ##  3 68001367 c          NA     NA     NA    NA
    ##  4 68001367 d          NA     NA     NA    NA
    ##  5 68001367 e          NA     NA     NA    NA
    ##  6 68001367 f          NA     NA     NA    NA
    ##  7 68001367 g          NA     NA     NA    NA
    ##  8 68004087 a           1      1     59     2
    ##  9 68004087 b           1      1     60     2
    ## 10 68004087 c           1      1     61     2
    ## # ... with 584,217 more rows
…
